{
  "LootA":{
    "Loot":["Silver", "Copper", "Gold", "Precious Stones", "Jewelery", "Potion", "Simple Melee Weapon", "Simple Ranged Weapon", "Light Armor"],
    "Weights":[2,3,1,2,2,1,6,1,1]
  },
  "LootB":{
    "Loot":["Silver", "Copper", "Gold", "Precious Stones", "Jewelery", "Potion", "Simple Melee Weapon", "Simple Ranged Weapon", "Light Armor"],
    "Weights":[3,1,2,2,2,1,6,1,1]
  }
}